Homework 3 - Eliza Norman
…
What is meant by long format data and wide format data? Which do we generally prefer for statistical analysis?

Long format data describes a dataset where there is a column for each variable and a row for each observation. Wide format data may have more than one observation in a given row. We prefer long format data for statistical analysis because we can apply functions to the rows and the code will be more robust. Assuming new observations with the same variables are added to the long format dataset, the code will execute the same way on these new rows. If the data were in wide format, the variable names might not be accurate as more observations are added.

Task 2.1: Reading Delimited Data

Glass Data

Reading in the dataset \(glass.data\) using functions from the tidyverse

glass <- read_csv("https://www4.stat.ncsu.edu/~online/datasets/glass.data",
                   col_names = c("Id", "RI", "Na", "Mg", "Al", "Si", "K", "Ca", "Ba", "Fe", "Type_of_glass"), show_col_types = FALSE)
glass

# A tibble: 214 × 11
      Id    RI    Na    Mg    Al    Si     K    Ca    Ba    Fe Type_of_glass
   <dbl> <dbl> <dbl> <dbl> <dbl> <dbl> <dbl> <dbl> <dbl> <dbl>         <dbl>
 1     1  1.52  13.6  4.49  1.1   71.8  0.06  8.75     0  0                1
 2     2  1.52  13.9  3.6   1.36  72.7  0.48  7.83     0  0                1
 3     3  1.52  13.5  3.55  1.54  73.0  0.39  7.78     0  0                1
 4     4  1.52  13.2  3.69  1.29  72.6  0.57  8.22     0  0                1
 5     5  1.52  13.3  3.62  1.24  73.1  0.55  8.07     0  0                1
 6     6  1.52  12.8  3.61  1.62  73.0  0.64  8.07     0  0.26             1
 7     7  1.52  13.3  3.6   1.14  73.1  0.58  8.17     0  0                1
 8     8  1.52  13.2  3.61  1.05  73.2  0.57  8.24     0  0                1
 9     9  1.52  14.0  3.58  1.37  72.1  0.56  8.3      0  0                1
10    10  1.52  13    3.6   1.36  73.0  0.57  8.4      0  0.11             1
# ℹ 204 more rows
…
Yeast Data

Reading the yeast data in using the URL and the \(read\_fwf\) tidyverse function

yeast <- read_fwf("https://www4.stat.ncsu.edu/~online/datasets/yeast.data",
                  fwf_widths(c(12,6,6,6,6,6,6,6,6,3),
                             c("seq_name", "mcg", "gvh", "alm", "mit", "erl", "pox", "vac", "nuc", "class")),show_col_types = FALSE)
yeast

# A tibble: 1,484 × 10
   seq_name     mcg   gvh   alm   mit   erl   pox   vac   nuc class
   <chr>      <dbl> <dbl> <dbl> <dbl> <dbl> <dbl> <dbl> <dbl> <chr>
 1 ADT1_YEAST  0.58  0.61  0.47  0.13   0.5   0    0.48  0.22 MIT  
 2 ADT2_YEAST  0.43  0.67  0.48  0.27   0.5   0    0.53  0.22 MIT  
 3 ADT3_YEAST  0.64  0.62  0.49  0.15   0.5   0    0.53  0.22 MIT  
 4 AAR2_YEAST  0.58  0.44  0.57  0.13   0.5   0    0.54  0.22 NUC  
 5 AATM_YEAST  0.42  0.44  0.48  0.54   0.5   0    0.48  0.22 MIT  
 6 AATC_YEAST  0.51  0.4   0.56  0.17   0.5   0.5  0.49  0.22 CYT  
 7 ABC1_YEAST  0.5   0.54  0.48  0.65   0.5   0    0.53  0.22 MIT  
 8 BAF1_YEAST  0.48  0.45  0.59  0.2    0.5   0    0.58  0.34 NUC  
 9 ABF2_YEAST  0.55  0.5   0.66  0.36   0.5   0    0.49  0.22 MIT  
10 ABP1_YEAST  0.4   0.39  0.6   0.15   0.5   0    0.58  0.3  CYT  
# ℹ 1,474 more rows

Creating a chain that removes \(seq\_name\) and \(nuc\) columns, then adds columns corresponding to the mean and median of each numeric variable at each \(class\) grouping.

yeast |>
  select(-c("seq_name","nuc")) |>
  group_by(class) |>
  mutate(across(where(is.numeric), list(mean = mean, median = median), .names="{.col}_{.fn}"))

# A tibble: 1,484 × 22
# Groups:   class [10]
     mcg   gvh   alm   mit   erl   pox   vac class mcg_mean mcg_median gvh_mean
   <dbl> <dbl> <dbl> <dbl> <dbl> <dbl> <dbl> <chr>    <dbl>      <dbl>    <dbl>
 1  0.58  0.61  0.47  0.13   0.5   0    0.48 MIT      0.521       0.51    0.533
 2  0.43  0.67  0.48  0.27   0.5   0    0.53 MIT      0.521       0.51    0.533
 3  0.64  0.62  0.49  0.15   0.5   0    0.53 MIT      0.521       0.51    0.533
 4  0.58  0.44  0.57  0.13   0.5   0    0.54 NUC      0.452       0.45    0.456
 5  0.42  0.44  0.48  0.54   0.5   0    0.48 MIT      0.521       0.51    0.533
 6  0.51  0.4   0.56  0.17   0.5   0.5  0.49 CYT      0.481       0.48    0.470
 7  0.5   0.54  0.48  0.65   0.5   0    0.53 MIT      0.521       0.51    0.533
 8  0.48  0.45  0.59  0.2    0.5   0    0.58 NUC      0.452       0.45    0.456
 9  0.55  0.5   0.66  0.36   0.5   0    0.49 MIT      0.521       0.51    0.533
10  0.4   0.39  0.6   0.15   0.5   0    0.58 CYT      0.481       0.48    0.470
# ℹ 1,474 more rows
# ℹ 11 more variables: gvh_median <dbl>, alm_mean <dbl>, alm_median <dbl>,
#   mit_mean <dbl>, mit_median <dbl>, erl_mean <dbl>, erl_median <dbl>,
#   pox_mean <dbl>, pox_median <dbl>, vac_mean <dbl>, vac_median <dbl>

Task 2.2: Combining Excel and Delimited Data

Downloading and importing the white wine dataset using the \(read\_excel\) function

white_wine <- read_excel("white-wine.xlsx")
white_wine

# A tibble: 4,898 × 12
   `fixed acidity` `volatile acidity` `citric acid` `residual sugar` chlorides
             <dbl>              <dbl>         <dbl>            <dbl>     <dbl>
 1               7               0.27          0.36             20.7     0.045
 2              63               0.3           0.34              1.6     0.049
 3              81               0.28          0.4               6.9     0.05 
 4              72               0.23          0.32              8.5     0.058
 5              72               0.23          0.32              8.5     0.058
 6              81               0.28          0.4               6.9     0.05 
 7              62               0.32          0.16              7       0.045
 8               7               0.27          0.36             20.7     0.045
 9              63               0.3           0.34              1.6     0.049
10              81               0.22          0.43              1.5     0.044
# ℹ 4,888 more rows
# ℹ 7 more variables: `free sulfur dioxide` <dbl>,
#   `total sulfur dioxide` <dbl>, density <dbl>, pH <dbl>, sulphates <dbl>,
#   alcohol <dbl>, quality <dbl>
…
Combining white and red wine datasets into one long dataset (setting the white_wine dataset and then attaching red_wine at the bottom)

full_wine <- dplyr::bind_rows(white_wine, red_wine)

6-9. Creating a chain that will (1) filter rows for high quality wines with reasonable alcohol value, (2) sort the rows from best to worst quality, (3) only include certain variables, and (4) find the mean and sd for \(alcohol\) at each level of \(quality\)

full_wine |>
  filter(quality > 6.5, alcohol < 132) |>
  arrange(desc(quality)) |>
  select(ends_with("acid"),ends_with("acidity"), alcohol, type, quality) |>
  group_by(quality) |>
  mutate(across(alcohol, list(mean = mean, sd = sd), .names="{.col}_{.fn}"))

# A tibble: 1,206 × 8
# Groups:   quality [3]
   citric_acid fixed_acidity volatile_acidity alcohol type  quality alcohol_mean
         <dbl>         <dbl>            <dbl>   <dbl> <chr>   <dbl>        <dbl>
 1        0.45            91             0.27     104 white       9        122. 
 2        0.29            66             0.36     124 white       9        122. 
 3        0.36            74             0.24     125 white       9        122. 
 4        0.34            69             0.36     127 white       9        122. 
 5        0.49            71             0.26     129 white       9        122. 
 6        0.48            62             0.66     128 white       8         94.1
 7        0.48            62             0.66     128 white       8         94.1
 8        0.42            68             0.26     105 white       8         94.1
 9        0.31            67             0.23     107 white       8         94.1
10        0.31            67             0.23     107 white       8         94.1
# ℹ 1,196 more rows
# ℹ 1 more variable: alcohol_sd <dbl>
…
Combining the table from the previous question with the People table in order to have the \(nameFirst\) and \(nameLast\) names added to what was returned above

HallOfFame_Plus_Names <- inner_join(tbl(con, "HallOfFame") |> filter(inducted == "Y") |> select(playerID, yearID, category),
           tbl(con, "People") |> select(nameFirst, nameLast, playerID),
           by = join_by(playerID == playerID)) |>
  collect()
HallOfFame_Plus_Names

# A tibble: 338 × 5
   playerID  yearID category          nameFirst nameLast 
   <chr>      <int> <chr>             <chr>     <chr>    
 1 cobbty01    1936 Player            Ty        Cobb     
 2 ruthba01    1936 Player            Babe      Ruth     
 3 wagneho01   1936 Player            Honus     Wagner   
 4 mathech01   1936 Player            Christy   Mathewson
 5 johnswa01   1936 Player            Walter    Johnson  
 6 lajoina01   1937 Player            Nap       Lajoie   
 7 speaktr01   1937 Player            Tris      Speaker  
 8 youngcy01   1937 Player            Cy        Young    
 9 bulkemo99   1937 Pioneer/Executive Morgan    Bulkeley 
10 johnsba99   1937 Pioneer/Executive Ban       Johnson  
# ℹ 328 more rows
…
newManagers <- tbl(con, "Managers") |>
  select(playerID, G, W, L) |>
  group_by(playerID) |>
  summarize(G_managed = sum(G, na.rm = TRUE),
            Total_W = sum(W, na.rm = TRUE),
            Total_L = sum(L, na.rm = TRUE))|>
  collect() |>
  mutate(Career_Win_Pctg = Total_W / G_managed) |>
  arrange(desc(Career_Win_Pctg)) |>
  collect()

newManagers

# A tibble: 749 × 5
   playerID  G_managed Total_W Total_L Career_Win_Pctg
   <chr>         <int>   <int>   <int>           <dbl>
 1 bensove01         1       1       0               1
 2 burwebi01         1       1       0               1
 3 cohenan01         1       1       0               1
 4 ebeldi99          3       3       0               1
 5 falkbi01          1       1       0               1
 6 hardeme01         3       3       0               1
 7 simmote01         1       1       0               1
 8 steinte01         2       2       0               1
 9 sukefcl01         2       2       0               1
10 tamarjo01         1       1       0               1
# ℹ 739 more rows

Joining the data that is common in both of the tables from the previous two questions, based on playerID; so information for only the people that managed a team and were inducted into the hall of fame, with all 9 variables present

inner_join(HallOfFame_Plus_Names, newManagers,
           by = join_by(playerID == playerID)) |>
  collect()

# A tibble: 97 × 9
   playerID  yearID category        nameFirst nameLast G_managed Total_W Total_L
   <chr>      <int> <chr>           <chr>     <chr>        <int>   <int>   <int>
 1 cobbty01    1936 Player          Ty        Cobb           933     479     444
 2 wagneho01   1936 Player          Honus     Wagner           5       1       4
 3 mathech01   1936 Player          Christy   Mathews…       346     164     176
 4 johnswa01   1936 Player          Walter    Johnson        966     529     432
 5 lajoina01   1937 Player          Nap       Lajoie         700     377     309
 6 speaktr01   1937 Player          Tris      Speaker       1139     617     520
 7 youngcy01   1937 Player          Cy        Young            6       3       3
 8 mackco01    1937 Manager         Connie    Mack          7755    3731    3948
 9 mcgrajo01   1937 Manager         John      McGraw        4769    2763    1948
10 wrighge01   1937 Pioneer/Execut… George    Wright          85      59      25
# ℹ 87 more rows
# ℹ 1 more variable: Career_Win_Pctg <dbl>
